Introduction to cuperdec • cuperdec
…
data(cuperdec_taxatable_ex)
data(cuperdec_database_ex)
data(cuperdec_metadata_ex)

Now we can use the loading functions to load the tables for you.

You can either supply your table as a path to a TSV on your computer, or alternatively a data frame/tibble that you’ve already loaded into R.

The function load_taxa_table() will then convert a OTU table into long format and rename columns to names that downstream functions will use.

taxatable <- load_taxa_table(cuperdec_taxatable_ex) %>%
  print()

## # A tibble: 66,187 × 3
##    Taxon                     Sample             Count
##    <chr>                     <chr>              <dbl>
##  1 Acidobacterium capsulatum ARS020.A0101.SG1.2   482
##  2 Acidobacterium capsulatum ARS012.A0101.SG1.2   278
##  3 Acidobacterium capsulatum ERR1883438           232
##  4 Acidobacterium capsulatum ERR1883424           407
##  5 Acidobacterium capsulatum ARS013.A0101.SG1.2   566
##  6 Acidobacterium capsulatum ARS004.A0101.SG1.2   384
##  7 Acidobacterium capsulatum ARS017.A0101.SG1.2  1005
##  8 Acidobacterium capsulatum ARS005.A0101.SG1.2   429
##  9 Acidobacterium capsulatum ERR1883421           181
## 10 Acidobacterium capsulatum ARS011.A0101.SG1.2   291
## # … with 66,177 more rows

Alternatively you can provide a path directly to a TSV table (not run here), rather than an already loaded object.

taxatable <- load_taxa_table("/<path>/<to>/<file>.tsv")

Next we need to useload_database() to load the file which describes the original isolation source of each OTU. Again, this function can take either a path to a file on your system, or a data frame already loaded into R.

This function takes two parameters, in addition to the the isolation source table itself, and you also need to supply the name of the target isolation source you are looking for within each sample.

In this case, we want to identify the all the taxa in our samples that have been isolated in from the oral cavity - indicated in the database file’s second column as ‘oral’. The load_database() function will then indicate for every Taxon that is derived from the target source as ‘True’ and everything that isn’t as ‘False’.

database <- load_database(cuperdec_database_ex, target = "oral") %>%
  print()

## # A tibble: 569 × 2
##    Taxon                            Isolation_Source
##    <chr>                            <lgl>           
##  1 Abiotrophia defectiva            TRUE            
##  2 Achromobacter xylosoxidans       TRUE            
##  3 Acinetobacter baumannii          FALSE           
##  4 Actinobaculum sp. oral taxon 183 TRUE            
##  5 Actinomyces cardiffensis         TRUE            
##  6 Actinomyces dentalis             TRUE            
##  7 Actinomyces georgiae             TRUE            
##  8 Actinomyces gerencseriae         TRUE            
##  9 Actinomyces graevenitzii         TRUE            
## 10 Actinomyces israelii             TRUE            
## # … with 559 more rows

Finally, in the example study, we wanted to compare the curves of different groups of our samples, with each different known-isolation comparative sample. Therefore, we will load an optional file carrying various metadata about each sample

For this we use cuperdec_metadata_ex(), supplying the metadata TSV, the name of the column with sample names, and the name of the column with the groups. You can have other columns in the metadata file, but only the two indicated will be taken downstream.

metadata_map <- load_map(cuperdec_metadata_ex,
                     sample_col = "#SampleID",
                     source_col = "Env") %>%
  print()

## # A tibble: 229 × 2
##    Sample             Sample_Source       
##    <chr>              <chr>               
##  1 ABM006.A0101       Gorilla_2           
##  2 ABM007.A0101       Chimp_3             
##  3 ABM008.A0101       Chimp_3             
##  4 ARS001.A0101.SG1.2 EnvironmentalControl
##  5 ARS004.A0101.SG1.2 EnvironmentalControl
##  6 ARS005.A0101.SG1.2 EnvironmentalControl
##  7 ARS010.A0101.SG1.2 EnvironmentalControl
##  8 ARS011.A0101.SG1.2 EnvironmentalControl
##  9 ARS012.A0101.SG1.2 EnvironmentalControl
## 10 ARS013.A0101.SG1.2 EnvironmentalControl
## # … with 219 more rows

Calculating a simple curve

Now, with all our data loaded we can calculate the cumulative percent curves per sample.

The way this works is to order (per sample) each taxon by it’s abundance. Then, calculate the fraction of taxa at each rank, that have come from your ‘target’ source ( including all ranks up until the current one).

A schematic can be seen on Figure R8 in GitHub repository of Fellows Yates et al. (202X).

To do these of the taxa table loaded above, we use the calculate_curve() function.

curves <- calculate_curve(taxatable, database = database) %>%
  print()

## # A tibble: 66,187 × 4
## # Groups:   Sample [229]
##    Sample       Taxon                                Rank Fraction_Target
##    <chr>        <chr>                               <int>           <dbl>
##  1 ABM006.A0101 Actinomyces meyeri                      1             100
##  2 ABM006.A0101 Actinomyces sp. oral taxon 414          2             100
##  3 ABM006.A0101 Campylobacter gracilis                  3             100
##  4 ABM006.A0101 Pseudopropionibacterium propionicum     4             100
##  5 ABM006.A0101 Fusobacterium nucleatum                 5             100
##  6 ABM006.A0101 Olsenella sp. oral taxon 807            6             100
##  7 ABM006.A0101 Eikenella corrodens                     7             100
##  8 ABM006.A0101 Streptococcus troglodytae               8             100
##  9 ABM006.A0101 Ottowia sp. oral taxon 894              9             100
## 10 ABM006.A0101 Fretibacterium fastidiosum             10             100
## # … with 66,177 more rows
…
Now we can see that the calculus samples (Howler monkey onwards), look much more like the Plaque samples, compared to e.g. sediment and skin.

Preservation filtering

Simple

These visualisation of these difference curves already start help us to distinguish well-preserved samples from those that maybe have few oral taxa left remaining. However, we can also try and use the observations from the plot above to set up cut-off filters that allows us to make consistent ‘keep’/‘discard’ decisions.

For example, other than a single extraction control, all non-plaque comparative samples do not exceed a minimum ‘Percentage Target Source’ threshold of ~50%.

Using observations like this cuperdec offers a range of different functions that perform various cut-off assessments between samples. For example, we can use simple_filter() to indicate any sample that exceeds a minimum percent source threshold of 50% at any point along the abundance rank.

filter_result <- simple_filter(curves, percent_threshold = 50) %>% print()

## # A tibble: 229 × 2
##    Sample             Passed
##    <chr>              <lgl> 
##  1 ABM006.A0101       TRUE  
##  2 ABM007.A0101       TRUE  
##  3 ABM008.A0101       TRUE  
##  4 ARS001.A0101.SG1.2 FALSE 
##  5 ARS004.A0101.SG1.2 FALSE 
##  6 ARS005.A0101.SG1.2 FALSE 
##  7 ARS010.A0101.SG1.2 FALSE 
##  8 ARS011.A0101.SG1.2 FALSE 
##  9 ARS012.A0101.SG1.2 FALSE 
## 10 ARS013.A0101.SG1.2 FALSE 
## # … with 219 more rows
…
As with the hard burn-in filter, each curve (i.e., sample) gets a different

abundance rank, after which exceeding of the minimum percent target source is considered.

Once we are happy that the curves appear to be distinguishing between well-preserved samples and those with a low ‘endogenous’ microbial content, we can use the list of samples that did not our thresholds to remove from downstream analysis.

discard_list <- burnin_result %>% filter(!Passed)
discard_list

## # A tibble: 120 × 2
##    Sample             Passed
##    <chr>              <lgl> 
##  1 ARS001.A0101.SG1.2 FALSE 
##  2 ARS004.A0101.SG1.2 FALSE 
##  3 ARS005.A0101.SG1.2 FALSE 
##  4 ARS010.A0101.SG1.2 FALSE 
##  5 ARS011.A0101.SG1.2 FALSE 
##  6 ARS012.A0101.SG1.2 FALSE 
##  7 ARS013.A0101.SG1.2 FALSE 
##  8 ARS015.A0101.SG1.2 FALSE 
##  9 ARS017.A0101.SG1.2 FALSE 
## 10 ARS020.A0101.SG1.2 FALSE 
## # … with 110 more rows
…
